…
``` r
dat %>% 
  group_by(year,continent) %>% 
  mutate(pop = pop/sum(as.numeric(pop))) %>% 
  group_by(year) %>% 
  mutate(pop.over  = pop*(lifeExp>=lifeExp.10[continent=='World']),
         pop.under = pop*(lifeExp< lifeExp.10[continent=='World'])) %>% 
  filter(continent != 'World')
```

    ## # A tibble: 1,680 x 9
    ## # Groups:   year [12]
    ##        country continent  year lifeExp         pop gdpPercap lifeExp.10
    ##         <fctr>    <fctr> <int>   <dbl>       <dbl>     <dbl>      <dbl>
    ##  1 Afghanistan      Asia  1952  28.801 0.006038118  779.4453   44.00000
    ##  2 Afghanistan      Asia  1957  30.332 0.005913136  820.8530   50.54896
    ##  3 Afghanistan      Asia  1962  31.997 0.006052430  853.1007   44.50136
    ##  4 Afghanistan      Asia  1967  34.020 0.006054568  836.1971   58.38112
    ##  5 Afghanistan      Asia  1972  36.088 0.006080720  739.9811   63.11888
    ##  6 Afghanistan      Asia  1977  38.438 0.006240422  786.1134   63.96736
    ##  7 Afghanistan      Asia  1982  39.854 0.004935305  978.0114   65.52500
    ##  8 Afghanistan      Asia  1987  40.822 0.004829986  852.3959   67.27400
    ##  9 Afghanistan      Asia  1992  41.674 0.005207916  649.3414   68.69000
    ## 10 Afghanistan      Asia  1997  41.763 0.006569772  635.3414   70.42600
    ## # ... with 1,670 more rows, and 2 more variables: pop.over <dbl>,
    ## #   pop.under <dbl>
…
